Processing National Outfall Database Data
…
ref <- ref %>% 
  pivot_longer(names_to = "indicator", values_to = "value", cols = all_of(inds)) %>% 
  mutate(outflow_vol = set_units(outflow_vol, "ML")) #%>% write_parquet(file.path(base_path, "data", "outflow_all_data.parquet"))

# might need this later
ref %>% 
  filter(indicator == "temperature") %>% 
  mutate(value = set_units(value, "degree_Celsius")) %>% 
  group_by(state, name, indicator, year, month, date) %>% 
  reframe(latitude = mean(latitude),
          longitude = mean(longitude),
          outflow_vol = sum(outflow_vol, na.rm = T),
          value = mean(value, na.rm = T)) #%>% write_parquet(file.path(base_path, "data", "temperature_data.parquet"))

# A tibble: 11,880 × 10
   state name    indicator  year month date       latitude longitude outflow_vol
   <fct> <fct>   <chr>     <int> <int> <date>        <dbl>     <dbl>        [ML]
 1 NSW   Batema… temperat…  2015     1 2015-01-01    -35.8      150.           0
 2 NSW   Batema… temperat…  2015     2 2015-02-01    -35.8      150.           0
 3 NSW   Batema… temperat…  2015     3 2015-03-01    -35.8      150.           0
 4 NSW   Batema… temperat…  2015     4 2015-04-01    -35.8      150.           0
 5 NSW   Batema… temperat…  2015     5 2015-05-01    -35.8      150.           0
 6 NSW   Batema… temperat…  2015     6 2015-06-01    -35.8      150.           0
 7 NSW   Batema… temperat…  2015     7 2015-07-01    -35.8      150.           0
 8 NSW   Batema… temperat…  2015     8 2015-08-01    -35.8      150.           0
 9 NSW   Batema… temperat…  2015     9 2015-09-01    -35.8      150.           0
10 NSW   Batema… temperat…  2015    10 2015-10-01    -35.8      150.           0
# ℹ 11,870 more rows
# ℹ 1 more variable: value [°C]
…
